%YAML 1.1
%TAG !u! tag:unity3d.com,2011:
--- !u!114 &11400000
MonoBehaviour:
  m_ObjectHideFlags: 0
  m_CorrespondingSourceObject: {fileID: 0}
  m_PrefabInstance: {fileID: 0}
  m_PrefabAsset: {fileID: 0}
  m_GameObject: {fileID: 0}
  m_Enabled: 1
  m_EditorHideFlags: 0
  m_Script: {fileID: 11500000, guid: 04d47cc7407cc624ab7926d58b3422a7, type: 3}
  m_Name: Deleter
  m_EditorClassIdentifier: 
  name: Deleter
  icon: {fileID: 21300000, guid: f7fc34fc7ae766d42b11bf16fe15cd93, type: 3}
  color: {r: 0.4901961, g: 0.4901961, b: 0.4901961, a: 1}
