%YAML 1.1
%TAG !u! tag:unity3d.com,2011:
--- !u!114 &11400000
MonoBehaviour:
  m_ObjectHideFlags: 0
  m_CorrespondingSourceObject: {fileID: 0}
  m_PrefabInstance: {fileID: 0}
  m_PrefabAsset: {fileID: 0}
  m_GameObject: {fileID: 0}
  m_Enabled: 1
  m_EditorHideFlags: 0
  m_Script: {fileID: 11500000, guid: 076c9c3c3530bad47978641394a407cc, type: 3}
  m_Name: DisregardTrafficSignsData
  m_EditorClassIdentifier: 
  name: Disregarding Traffic Signs
  icon: {fileID: 21300000, guid: 7e02c9c181442504f90539beca93cfbf, type: 3}
  markIcon: {fileID: -7754988575891523622, guid: 1f1256bfde21bdb419074097a3428d51,
    type: 3}
  color: {r: 0.9716981, g: 0.845822, b: 0.03208439, a: 1}
  violationDuration: 0
  apprehensionDuration: 10
  maxReward: 30
  minReward: 20
