%YAML 1.1
%TAG !u! tag:unity3d.com,2011:
--- !u!114 &11400000
MonoBehaviour:
  m_ObjectHideFlags: 0
  m_CorrespondingSourceObject: {fileID: 0}
  m_PrefabInstance: {fileID: 0}
  m_PrefabAsset: {fileID: 0}
  m_GameObject: {fileID: 0}
  m_Enabled: 1
  m_EditorHideFlags: 0
  m_Script: {fileID: 11500000, guid: 3634064513ba5b042966a0e01159595d, type: 3}
  m_Name: Level5
  m_EditorClassIdentifier: 
  number: 5
  highestScore: 0
  sceneName: Level_5
  timeLimit: 120
  instructionsSceneName: 
  violationsEnabled:
  - {fileID: 11400000, guid: 10998210ed9e30142be98479a6999d26, type: 2}
  - {fileID: 11400000, guid: dbfa45bc1fef9ff418365a2a8bb7e27a, type: 2}
  toolsEnabled:
  - {fileID: 11400000, guid: c6decd11c3e67804ead1cc96ffb76789, type: 2}
  AlwaysFollowLights: 1
  AlwaysFollowNoStopZone: 0
  styles: 0300000001000000
  unlocked: 0
  oneStarMinimum: 250
  twoStarMinimum: 400
  threeStarMinimum: 500
  nextLevel: {fileID: 11400000, guid: 2a6bebb29fb77a84fb9dd94e4ae2d3c8, type: 2}
  allowedDays: 0100000002000000030000000400000005000000
  InstructionsCompleted: 0
