%YAML 1.1
%TAG !u! tag:unity3d.com,2011:
--- !u!29 &1
OcclusionCullingSettings:
  m_ObjectHideFlags: 0
  serializedVersion: 2
  m_OcclusionBakeSettings:
    smallestOccluder: 5
    smallestHole: 0.25
    backfaceThreshold: 100
  m_SceneGUID: 00000000000000000000000000000000
  m_OcclusionCullingData: {fileID: 0}
--- !u!104 &2
RenderSettings:
  m_ObjectHideFlags: 0
  serializedVersion: 9
  m_Fog: 0
  m_FogColor: {r: 0.5, g: 0.5, b: 0.5, a: 1}
  m_FogMode: 3
  m_FogDensity: 0.01
  m_LinearFogStart: 0
  m_LinearFogEnd: 300
  m_AmbientSkyColor: {r: 0.212, g: 0.227, b: 0.259, a: 1}
  m_AmbientEquatorColor: {r: 0.114, g: 0.125, b: 0.133, a: 1}
  m_AmbientGroundColor: {r: 0.047, g: 0.043, b: 0.035, a: 1}
  m_AmbientIntensity: 1
  m_AmbientMode: 3
  m_SubtractiveShadowColor: {r: 0.42, g: 0.478, b: 0.627, a: 1}
  m_SkyboxMaterial: {fileID: 0}
  m_HaloStrength: 0.5
  m_FlareStrength: 1
  m_FlareFadeSpeed: 3
  m_HaloTexture: {fileID: 0}
  m_SpotCookie: {fileID: 10001, guid: 0000000000000000e000000000000000, type: 0}
  m_DefaultReflectionMode: 0
  m_DefaultReflectionResolution: 128
  m_ReflectionBounces: 1
  m_ReflectionIntensity: 1
  m_CustomReflection: {fileID: 0}
  m_Sun: {fileID: 0}
  m_IndirectSpecularColor: {r: 0, g: 0, b: 0, a: 1}
  m_UseRadianceAmbientProbe: 0
--- !u!157 &3
LightmapSettings:
  m_ObjectHideFlags: 0
  serializedVersion: 11
  m_GIWorkflowMode: 1
  m_GISettings:
    serializedVersion: 2
    m_BounceScale: 1
    m_IndirectOutputScale: 1
    m_AlbedoBoost: 1
    m_EnvironmentLightingMode: 0
    m_EnableBakedLightmaps: 0
    m_EnableRealtimeLightmaps: 0
  m_LightmapEditorSettings:
    serializedVersion: 12
    m_Resolution: 2
    m_BakeResolution: 40
    m_AtlasSize: 1024
    m_AO: 0
    m_AOMaxDistance: 1
    m_CompAOExponent: 1
    m_CompAOExponentDirect: 0
    m_ExtractAmbientOcclusion: 0
    m_Padding: 2
    m_LightmapParameters: {fileID: 0}
    m_LightmapsBakeMode: 1
    m_TextureCompression: 1
    m_FinalGather: 0
    m_FinalGatherFiltering: 1
    m_FinalGatherRayCount: 256
    m_ReflectionCompression: 2
    m_MixedBakeMode: 2
    m_BakeBackend: 0
    m_PVRSampling: 1
    m_PVRDirectSampleCount: 32
    m_PVRSampleCount: 500
    m_PVRBounces: 2
    m_PVREnvironmentSampleCount: 500
    m_PVREnvironmentReferencePointCount: 2048
    m_PVRFilteringMode: 2
    m_PVRDenoiserTypeDirect: 0
    m_PVRDenoiserTypeIndirect: 0
    m_PVRDenoiserTypeAO: 0
    m_PVRFilterTypeDirect: 0
    m_PVRFilterTypeIndirect: 0
    m_PVRFilterTypeAO: 0
    m_PVREnvironmentMIS: 0
    m_PVRCulling: 1
    m_PVRFilteringGaussRadiusDirect: 1
    m_PVRFilteringGaussRadiusIndirect: 5
    m_PVRFilteringGaussRadiusAO: 2
    m_PVRFilteringAtrousPositionSigmaDirect: 0.5
    m_PVRFilteringAtrousPositionSigmaIndirect: 2
    m_PVRFilteringAtrousPositionSigmaAO: 1
    m_ExportTrainingData: 0
    m_TrainingDataDestination: TrainingData
  m_LightingDataAsset: {fileID: 0}
  m_UseShadowmask: 1
--- !u!196 &4
NavMeshSettings:
  serializedVersion: 2
  m_ObjectHideFlags: 0
  m_BuildSettings:
    serializedVersion: 2
    agentTypeID: 0
    agentRadius: 0.5
    agentHeight: 2
    agentSlope: 45
    agentClimb: 0.4
    ledgeDropHeight: 0
    maxJumpAcrossDistance: 0
    minRegionArea: 2
    manualCellSize: 0
    cellSize: 0.16666667
    manualTileSize: 0
    tileSize: 256
    accuratePlacement: 0
    debug:
      m_Flags: 0
  m_NavMeshData: {fileID: 0}
--- !u!1001 &213929161
PrefabInstance:
  m_ObjectHideFlags: 0
  serializedVersion: 2
  m_Modification:
    m_TransformParent: {fileID: 0}
    m_Modifications:
    - target: {fileID: 5169451895488650277, guid: 49adab7ef63fbaf46909b024f0b89b1c,
        type: 3}
      propertyPath: m_Name
      value: Main Camera
      objectReference: {fileID: 0}
    - target: {fileID: 5169451895488650457, guid: 49adab7ef63fbaf46909b024f0b89b1c,
        type: 3}
      propertyPath: m_LocalPosition.x
      value: 33.97
      objectReference: {fileID: 0}
    - target: {fileID: 5169451895488650457, guid: 49adab7ef63fbaf46909b024f0b89b1c,
        type: 3}
      propertyPath: m_LocalPosition.y
      value: -5.04
      objectReference: {fileID: 0}
    - target: {fileID: 5169451895488650457, guid: 49adab7ef63fbaf46909b024f0b89b1c,
        type: 3}
      propertyPath: m_LocalPosition.z
      value: -10
      objectReference: {fileID: 0}
    - target: {fileID: 5169451895488650457, guid: 49adab7ef63fbaf46909b024f0b89b1c,
        type: 3}
      propertyPath: m_LocalRotation.x
      value: 0
      objectReference: {fileID: 0}
    - target: {fileID: 5169451895488650457, guid: 49adab7ef63fbaf46909b024f0b89b1c,
        type: 3}
      propertyPath: m_LocalRotation.y
      value: 0
      objectReference: {fileID: 0}
    - target: {fileID: 5169451895488650457, guid: 49adab7ef63fbaf46909b024f0b89b1c,
        type: 3}
      propertyPath: m_LocalRotation.z
      value: 0
      objectReference: {fileID: 0}
    - target: {fileID: 5169451895488650457, guid: 49adab7ef63fbaf46909b024f0b89b1c,
        type: 3}
      propertyPath: m_LocalRotation.w
      value: 1
      objectReference: {fileID: 0}
    - target: {fileID: 5169451895488650457, guid: 49adab7ef63fbaf46909b024f0b89b1c,
        type: 3}
      propertyPath: m_RootOrder
      value: 0
      objectReference: {fileID: 0}
    - target: {fileID: 5169451895488650457, guid: 49adab7ef63fbaf46909b024f0b89b1c,
        type: 3}
      propertyPath: m_LocalEulerAnglesHint.x
      value: 0
      objectReference: {fileID: 0}
    - target: {fileID: 5169451895488650457, guid: 49adab7ef63fbaf46909b024f0b89b1c,
        type: 3}
      propertyPath: m_LocalEulerAnglesHint.y
      value: 0
      objectReference: {fileID: 0}
    - target: {fileID: 5169451895488650457, guid: 49adab7ef63fbaf46909b024f0b89b1c,
        type: 3}
      propertyPath: m_LocalEulerAnglesHint.z
      value: 0
      objectReference: {fileID: 0}
    - target: {fileID: 5169451895488650278, guid: 49adab7ef63fbaf46909b024f0b89b1c,
        type: 3}
      propertyPath: orthographic size
      value: 18.4
      objectReference: {fileID: 0}
    m_RemovedComponents: []
  m_SourcePrefab: {fileID: 100100000, guid: 49adab7ef63fbaf46909b024f0b89b1c, type: 3}
--- !u!1001 &304350229
PrefabInstance:
  m_ObjectHideFlags: 0
  serializedVersion: 2
  m_Modification:
    m_TransformParent: {fileID: 0}
    m_Modifications:
    - target: {fileID: 1341677823533983565, guid: 852a92991ffa29242a155375b956e221,
        type: 3}
      propertyPath: m_Name
      value: Canvas_End
      objectReference: {fileID: 0}
    - target: {fileID: 1341677823533983565, guid: 852a92991ffa29242a155375b956e221,
        type: 3}
      propertyPath: m_IsActive
      value: 1
      objectReference: {fileID: 0}
    - target: {fileID: 1341677823533983553, guid: 852a92991ffa29242a155375b956e221,
        type: 3}
      propertyPath: m_LocalPosition.x
      value: 0
      objectReference: {fileID: 0}
    - target: {fileID: 1341677823533983553, guid: 852a92991ffa29242a155375b956e221,
        type: 3}
      propertyPath: m_LocalPosition.y
      value: 0
      objectReference: {fileID: 0}
    - target: {fileID: 1341677823533983553, guid: 852a92991ffa29242a155375b956e221,
        type: 3}
      propertyPath: m_LocalPosition.z
      value: 0
      objectReference: {fileID: 0}
    - target: {fileID: 1341677823533983553, guid: 852a92991ffa29242a155375b956e221,
        type: 3}
      propertyPath: m_LocalRotation.x
      value: 0
      objectReference: {fileID: 0}
    - target: {fileID: 1341677823533983553, guid: 852a92991ffa29242a155375b956e221,
        type: 3}
      propertyPath: m_LocalRotation.y
      value: 0
      objectReference: {fileID: 0}
    - target: {fileID: 1341677823533983553, guid: 852a92991ffa29242a155375b956e221,
        type: 3}
      propertyPath: m_LocalRotation.z
      value: 0
      objectReference: {fileID: 0}
    - target: {fileID: 1341677823533983553, guid: 852a92991ffa29242a155375b956e221,
        type: 3}
      propertyPath: m_LocalRotation.w
      value: 1
      objectReference: {fileID: 0}
    - target: {fileID: 1341677823533983553, guid: 852a92991ffa29242a155375b956e221,
        type: 3}
      propertyPath: m_RootOrder
      value: 3
      objectReference: {fileID: 0}
    - target: {fileID: 1341677823533983553, guid: 852a92991ffa29242a155375b956e221,
        type: 3}
      propertyPath: m_LocalEulerAnglesHint.x
      value: 0
      objectReference: {fileID: 0}
    - target: {fileID: 1341677823533983553, guid: 852a92991ffa29242a155375b956e221,
        type: 3}
      propertyPath: m_LocalEulerAnglesHint.y
      value: 0
      objectReference: {fileID: 0}
    - target: {fileID: 1341677823533983553, guid: 852a92991ffa29242a155375b956e221,
        type: 3}
      propertyPath: m_LocalEulerAnglesHint.z
      value: 0
      objectReference: {fileID: 0}
    - target: {fileID: 1341677823533983553, guid: 852a92991ffa29242a155375b956e221,
        type: 3}
      propertyPath: m_AnchoredPosition.x
      value: 0
      objectReference: {fileID: 0}
    - target: {fileID: 1341677823533983553, guid: 852a92991ffa29242a155375b956e221,
        type: 3}
      propertyPath: m_AnchoredPosition.y
      value: 0
      objectReference: {fileID: 0}
    - target: {fileID: 1341677823533983553, guid: 852a92991ffa29242a155375b956e221,
        type: 3}
      propertyPath: m_SizeDelta.x
      value: 0
      objectReference: {fileID: 0}
    - target: {fileID: 1341677823533983553, guid: 852a92991ffa29242a155375b956e221,
        type: 3}
      propertyPath: m_SizeDelta.y
      value: 0
      objectReference: {fileID: 0}
    - target: {fileID: 1341677823533983553, guid: 852a92991ffa29242a155375b956e221,
        type: 3}
      propertyPath: m_AnchorMin.x
      value: 0
      objectReference: {fileID: 0}
    - target: {fileID: 1341677823533983553, guid: 852a92991ffa29242a155375b956e221,
        type: 3}
      propertyPath: m_AnchorMin.y
      value: 0
      objectReference: {fileID: 0}
    - target: {fileID: 1341677823533983553, guid: 852a92991ffa29242a155375b956e221,
        type: 3}
      propertyPath: m_AnchorMax.x
      value: 0
      objectReference: {fileID: 0}
    - target: {fileID: 1341677823533983553, guid: 852a92991ffa29242a155375b956e221,
        type: 3}
      propertyPath: m_AnchorMax.y
      value: 0
      objectReference: {fileID: 0}
    - target: {fileID: 1341677823533983553, guid: 852a92991ffa29242a155375b956e221,
        type: 3}
      propertyPath: m_Pivot.x
      value: 0
      objectReference: {fileID: 0}
    - target: {fileID: 1341677823533983553, guid: 852a92991ffa29242a155375b956e221,
        type: 3}
      propertyPath: m_Pivot.y
      value: 0
      objectReference: {fileID: 0}
    - target: {fileID: 143719017088143763, guid: 852a92991ffa29242a155375b956e221,
        type: 3}
      propertyPath: m_OnClick.m_PersistentCalls.m_Calls.Array.data[0].m_Target
      value: 
      objectReference: {fileID: 0}
    - target: {fileID: 143719017088143763, guid: 852a92991ffa29242a155375b956e221,
        type: 3}
      propertyPath: m_OnClick.m_PersistentCalls.m_Calls.Array.data[0].m_MethodName
      value: GoToSceneWithFade
      objectReference: {fileID: 0}
    - target: {fileID: 1341677823775686875, guid: 852a92991ffa29242a155375b956e221,
        type: 3}
      propertyPath: m_OnClick.m_PersistentCalls.m_Calls.Array.data[0].m_Target
      value: 
      objectReference: {fileID: 0}
    - target: {fileID: 1341677823775686875, guid: 852a92991ffa29242a155375b956e221,
        type: 3}
      propertyPath: m_OnClick.m_PersistentCalls.m_Calls.Array.data[0].m_MethodName
      value: GoToSceneWithFade
      objectReference: {fileID: 0}
    - target: {fileID: 1341677823775686875, guid: 852a92991ffa29242a155375b956e221,
        type: 3}
      propertyPath: m_OnClick.m_PersistentCalls.m_Calls.Array.data[0].m_Mode
      value: 5
      objectReference: {fileID: 0}
    m_RemovedComponents: []
  m_SourcePrefab: {fileID: 100100000, guid: 852a92991ffa29242a155375b956e221, type: 3}
--- !u!1001 &528165389
PrefabInstance:
  m_ObjectHideFlags: 0
  serializedVersion: 2
  m_Modification:
    m_TransformParent: {fileID: 0}
    m_Modifications:
    - target: {fileID: 4107238426031375208, guid: b5e7ddce06cf03f468e6e8e247a5d132,
        type: 3}
      propertyPath: m_Name
      value: _Managers
      objectReference: {fileID: 0}
    - target: {fileID: 4107238426031375211, guid: b5e7ddce06cf03f468e6e8e247a5d132,
        type: 3}
      propertyPath: m_LocalPosition.x
      value: 16.945658
      objectReference: {fileID: 0}
    - target: {fileID: 4107238426031375211, guid: b5e7ddce06cf03f468e6e8e247a5d132,
        type: 3}
      propertyPath: m_LocalPosition.y
      value: 8.226146
      objectReference: {fileID: 0}
    - target: {fileID: 4107238426031375211, guid: b5e7ddce06cf03f468e6e8e247a5d132,
        type: 3}
      propertyPath: m_LocalPosition.z
      value: -265.47165
      objectReference: {fileID: 0}
    - target: {fileID: 4107238426031375211, guid: b5e7ddce06cf03f468e6e8e247a5d132,
        type: 3}
      propertyPath: m_LocalRotation.x
      value: 0
      objectReference: {fileID: 0}
    - target: {fileID: 4107238426031375211, guid: b5e7ddce06cf03f468e6e8e247a5d132,
        type: 3}
      propertyPath: m_LocalRotation.y
      value: 0
      objectReference: {fileID: 0}
    - target: {fileID: 4107238426031375211, guid: b5e7ddce06cf03f468e6e8e247a5d132,
        type: 3}
      propertyPath: m_LocalRotation.z
      value: 0
      objectReference: {fileID: 0}
    - target: {fileID: 4107238426031375211, guid: b5e7ddce06cf03f468e6e8e247a5d132,
        type: 3}
      propertyPath: m_LocalRotation.w
      value: 1
      objectReference: {fileID: 0}
    - target: {fileID: 4107238426031375211, guid: b5e7ddce06cf03f468e6e8e247a5d132,
        type: 3}
      propertyPath: m_RootOrder
      value: 8
      objectReference: {fileID: 0}
    - target: {fileID: 4107238426031375211, guid: b5e7ddce06cf03f468e6e8e247a5d132,
        type: 3}
      propertyPath: m_LocalEulerAnglesHint.x
      value: 0
      objectReference: {fileID: 0}
    - target: {fileID: 4107238426031375211, guid: b5e7ddce06cf03f468e6e8e247a5d132,
        type: 3}
      propertyPath: m_LocalEulerAnglesHint.y
      value: 0
      objectReference: {fileID: 0}
    - target: {fileID: 4107238426031375211, guid: b5e7ddce06cf03f468e6e8e247a5d132,
        type: 3}
      propertyPath: m_LocalEulerAnglesHint.z
      value: 0
      objectReference: {fileID: 0}
    m_RemovedComponents: []
  m_SourcePrefab: {fileID: 100100000, guid: b5e7ddce06cf03f468e6e8e247a5d132, type: 3}
--- !u!1001 &618181453
PrefabInstance:
  m_ObjectHideFlags: 0
  serializedVersion: 2
  m_Modification:
    m_TransformParent: {fileID: 0}
    m_Modifications:
    - target: {fileID: 8894908164646305031, guid: c0079e747aac0de47b6170d91bdc88e5,
        type: 3}
      propertyPath: m_Name
      value: Canvas_Start
      objectReference: {fileID: 0}
    - target: {fileID: 8894908164646305051, guid: c0079e747aac0de47b6170d91bdc88e5,
        type: 3}
      propertyPath: m_LocalPosition.x
      value: 0
      objectReference: {fileID: 0}
    - target: {fileID: 8894908164646305051, guid: c0079e747aac0de47b6170d91bdc88e5,
        type: 3}
      propertyPath: m_LocalPosition.y
      value: 0
      objectReference: {fileID: 0}
    - target: {fileID: 8894908164646305051, guid: c0079e747aac0de47b6170d91bdc88e5,
        type: 3}
      propertyPath: m_LocalPosition.z
      value: 0
      objectReference: {fileID: 0}
    - target: {fileID: 8894908164646305051, guid: c0079e747aac0de47b6170d91bdc88e5,
        type: 3}
      propertyPath: m_LocalRotation.x
      value: 0
      objectReference: {fileID: 0}
    - target: {fileID: 8894908164646305051, guid: c0079e747aac0de47b6170d91bdc88e5,
        type: 3}
      propertyPath: m_LocalRotation.y
      value: 0
      objectReference: {fileID: 0}
    - target: {fileID: 8894908164646305051, guid: c0079e747aac0de47b6170d91bdc88e5,
        type: 3}
      propertyPath: m_LocalRotation.z
      value: 0
      objectReference: {fileID: 0}
    - target: {fileID: 8894908164646305051, guid: c0079e747aac0de47b6170d91bdc88e5,
        type: 3}
      propertyPath: m_LocalRotation.w
      value: 1
      objectReference: {fileID: 0}
    - target: {fileID: 8894908164646305051, guid: c0079e747aac0de47b6170d91bdc88e5,
        type: 3}
      propertyPath: m_RootOrder
      value: 4
      objectReference: {fileID: 0}
    - target: {fileID: 8894908164646305051, guid: c0079e747aac0de47b6170d91bdc88e5,
        type: 3}
      propertyPath: m_LocalEulerAnglesHint.x
      value: 0
      objectReference: {fileID: 0}
    - target: {fileID: 8894908164646305051, guid: c0079e747aac0de47b6170d91bdc88e5,
        type: 3}
      propertyPath: m_LocalEulerAnglesHint.y
      value: 0
      objectReference: {fileID: 0}
    - target: {fileID: 8894908164646305051, guid: c0079e747aac0de47b6170d91bdc88e5,
        type: 3}
      propertyPath: m_LocalEulerAnglesHint.z
      value: 0
      objectReference: {fileID: 0}
    - target: {fileID: 8894908164646305051, guid: c0079e747aac0de47b6170d91bdc88e5,
        type: 3}
      propertyPath: m_AnchoredPosition.x
      value: 0
      objectReference: {fileID: 0}
    - target: {fileID: 8894908164646305051, guid: c0079e747aac0de47b6170d91bdc88e5,
        type: 3}
      propertyPath: m_AnchoredPosition.y
      value: 0
      objectReference: {fileID: 0}
    - target: {fileID: 8894908164646305051, guid: c0079e747aac0de47b6170d91bdc88e5,
        type: 3}
      propertyPath: m_SizeDelta.x
      value: 0
      objectReference: {fileID: 0}
    - target: {fileID: 8894908164646305051, guid: c0079e747aac0de47b6170d91bdc88e5,
        type: 3}
      propertyPath: m_SizeDelta.y
      value: 0
      objectReference: {fileID: 0}
    - target: {fileID: 8894908164646305051, guid: c0079e747aac0de47b6170d91bdc88e5,
        type: 3}
      propertyPath: m_AnchorMin.x
      value: 0
      objectReference: {fileID: 0}
    - target: {fileID: 8894908164646305051, guid: c0079e747aac0de47b6170d91bdc88e5,
        type: 3}
      propertyPath: m_AnchorMin.y
      value: 0
      objectReference: {fileID: 0}
    - target: {fileID: 8894908164646305051, guid: c0079e747aac0de47b6170d91bdc88e5,
        type: 3}
      propertyPath: m_AnchorMax.x
      value: 0
      objectReference: {fileID: 0}
    - target: {fileID: 8894908164646305051, guid: c0079e747aac0de47b6170d91bdc88e5,
        type: 3}
      propertyPath: m_AnchorMax.y
      value: 0
      objectReference: {fileID: 0}
    - target: {fileID: 8894908164646305051, guid: c0079e747aac0de47b6170d91bdc88e5,
        type: 3}
      propertyPath: m_Pivot.x
      value: 0
      objectReference: {fileID: 0}
    - target: {fileID: 8894908164646305051, guid: c0079e747aac0de47b6170d91bdc88e5,
        type: 3}
      propertyPath: m_Pivot.y
      value: 0
      objectReference: {fileID: 0}
    m_RemovedComponents: []
  m_SourcePrefab: {fileID: 100100000, guid: c0079e747aac0de47b6170d91bdc88e5, type: 3}
--- !u!1001 &1112923161
PrefabInstance:
  m_ObjectHideFlags: 0
  serializedVersion: 2
  m_Modification:
    m_TransformParent: {fileID: 0}
    m_Modifications:
    - target: {fileID: 175775555021313658, guid: e1f0ad0573eb8fc4fb0e9066236c90eb,
        type: 3}
      propertyPath: m_Name
      value: Canvas_FloatingText
      objectReference: {fileID: 0}
    - target: {fileID: 175775555021313654, guid: e1f0ad0573eb8fc4fb0e9066236c90eb,
        type: 3}
      propertyPath: m_LocalPosition.x
      value: 0
      objectReference: {fileID: 0}
    - target: {fileID: 175775555021313654, guid: e1f0ad0573eb8fc4fb0e9066236c90eb,
        type: 3}
      propertyPath: m_LocalPosition.y
      value: 0
      objectReference: {fileID: 0}
    - target: {fileID: 175775555021313654, guid: e1f0ad0573eb8fc4fb0e9066236c90eb,
        type: 3}
      propertyPath: m_LocalPosition.z
      value: 0
      objectReference: {fileID: 0}
    - target: {fileID: 175775555021313654, guid: e1f0ad0573eb8fc4fb0e9066236c90eb,
        type: 3}
      propertyPath: m_LocalRotation.x
      value: 0
      objectReference: {fileID: 0}
    - target: {fileID: 175775555021313654, guid: e1f0ad0573eb8fc4fb0e9066236c90eb,
        type: 3}
      propertyPath: m_LocalRotation.y
      value: 0
      objectReference: {fileID: 0}
    - target: {fileID: 175775555021313654, guid: e1f0ad0573eb8fc4fb0e9066236c90eb,
        type: 3}
      propertyPath: m_LocalRotation.z
      value: 0
      objectReference: {fileID: 0}
    - target: {fileID: 175775555021313654, guid: e1f0ad0573eb8fc4fb0e9066236c90eb,
        type: 3}
      propertyPath: m_LocalRotation.w
      value: 1
      objectReference: {fileID: 0}
    - target: {fileID: 175775555021313654, guid: e1f0ad0573eb8fc4fb0e9066236c90eb,
        type: 3}
      propertyPath: m_RootOrder
      value: 7
      objectReference: {fileID: 0}
    - target: {fileID: 175775555021313654, guid: e1f0ad0573eb8fc4fb0e9066236c90eb,
        type: 3}
      propertyPath: m_LocalEulerAnglesHint.x
      value: 0
      objectReference: {fileID: 0}
    - target: {fileID: 175775555021313654, guid: e1f0ad0573eb8fc4fb0e9066236c90eb,
        type: 3}
      propertyPath: m_LocalEulerAnglesHint.y
      value: 0
      objectReference: {fileID: 0}
    - target: {fileID: 175775555021313654, guid: e1f0ad0573eb8fc4fb0e9066236c90eb,
        type: 3}
      propertyPath: m_LocalEulerAnglesHint.z
      value: 0
      objectReference: {fileID: 0}
    - target: {fileID: 175775555021313654, guid: e1f0ad0573eb8fc4fb0e9066236c90eb,
        type: 3}
      propertyPath: m_AnchoredPosition.x
      value: 0
      objectReference: {fileID: 0}
    - target: {fileID: 175775555021313654, guid: e1f0ad0573eb8fc4fb0e9066236c90eb,
        type: 3}
      propertyPath: m_AnchoredPosition.y
      value: 0
      objectReference: {fileID: 0}
    - target: {fileID: 175775555021313654, guid: e1f0ad0573eb8fc4fb0e9066236c90eb,
        type: 3}
      propertyPath: m_SizeDelta.x
      value: 0
      objectReference: {fileID: 0}
    - target: {fileID: 175775555021313654, guid: e1f0ad0573eb8fc4fb0e9066236c90eb,
        type: 3}
      propertyPath: m_SizeDelta.y
      value: 0
      objectReference: {fileID: 0}
    - target: {fileID: 175775555021313654, guid: e1f0ad0573eb8fc4fb0e9066236c90eb,
        type: 3}
      propertyPath: m_AnchorMin.x
      value: 0
      objectReference: {fileID: 0}
    - target: {fileID: 175775555021313654, guid: e1f0ad0573eb8fc4fb0e9066236c90eb,
        type: 3}
      propertyPath: m_AnchorMin.y
      value: 0
      objectReference: {fileID: 0}
    - target: {fileID: 175775555021313654, guid: e1f0ad0573eb8fc4fb0e9066236c90eb,
        type: 3}
      propertyPath: m_AnchorMax.x
      value: 0
      objectReference: {fileID: 0}
    - target: {fileID: 175775555021313654, guid: e1f0ad0573eb8fc4fb0e9066236c90eb,
        type: 3}
      propertyPath: m_AnchorMax.y
      value: 0
      objectReference: {fileID: 0}
    - target: {fileID: 175775555021313654, guid: e1f0ad0573eb8fc4fb0e9066236c90eb,
        type: 3}
      propertyPath: m_Pivot.x
      value: 0
      objectReference: {fileID: 0}
    - target: {fileID: 175775555021313654, guid: e1f0ad0573eb8fc4fb0e9066236c90eb,
        type: 3}
      propertyPath: m_Pivot.y
      value: 0
      objectReference: {fileID: 0}
    m_RemovedComponents: []
  m_SourcePrefab: {fileID: 100100000, guid: e1f0ad0573eb8fc4fb0e9066236c90eb, type: 3}
--- !u!1 &1302070771
GameObject:
  m_ObjectHideFlags: 0
  m_CorrespondingSourceObject: {fileID: 0}
  m_PrefabInstance: {fileID: 0}
  m_PrefabAsset: {fileID: 0}
  serializedVersion: 6
  m_Component:
  - component: {fileID: 1302070772}
  m_Layer: 0
  m_Name: Cars
  m_TagString: Untagged
  m_Icon: {fileID: 0}
  m_NavMeshLayer: 0
  m_StaticEditorFlags: 0
  m_IsActive: 1
--- !u!4 &1302070772
Transform:
  m_ObjectHideFlags: 0
  m_CorrespondingSourceObject: {fileID: 0}
  m_PrefabInstance: {fileID: 0}
  m_PrefabAsset: {fileID: 0}
  m_GameObject: {fileID: 1302070771}
  m_LocalRotation: {x: -0, y: -0, z: -0, w: 1}
  m_LocalPosition: {x: 16.945658, y: 8.226146, z: -265.47165}
  m_LocalScale: {x: 1, y: 1, z: 1}
  m_Children: []
  m_Father: {fileID: 0}
  m_RootOrder: 10
  m_LocalEulerAnglesHint: {x: 0, y: 0, z: 0}
--- !u!1 &1327378654
GameObject:
  m_ObjectHideFlags: 0
  m_CorrespondingSourceObject: {fileID: 0}
  m_PrefabInstance: {fileID: 0}
  m_PrefabAsset: {fileID: 0}
  serializedVersion: 6
  m_Component:
  - component: {fileID: 1327378657}
  - component: {fileID: 1327378656}
  - component: {fileID: 1327378655}
  m_Layer: 0
  m_Name: EventSystem
  m_TagString: Untagged
  m_Icon: {fileID: 0}
  m_NavMeshLayer: 0
  m_StaticEditorFlags: 0
  m_IsActive: 1
--- !u!114 &1327378655
MonoBehaviour:
  m_ObjectHideFlags: 0
  m_CorrespondingSourceObject: {fileID: 0}
  m_PrefabInstance: {fileID: 0}
  m_PrefabAsset: {fileID: 0}
  m_GameObject: {fileID: 1327378654}
  m_Enabled: 1
  m_EditorHideFlags: 0
  m_Script: {fileID: 11500000, guid: 4f231c4fb786f3946a6b90b886c48677, type: 3}
  m_Name: 
  m_EditorClassIdentifier: 
  m_HorizontalAxis: Horizontal
  m_VerticalAxis: Vertical
  m_SubmitButton: Submit
  m_CancelButton: Cancel
  m_InputActionsPerSecond: 10
  m_RepeatDelay: 0.5
  m_ForceModuleActive: 0
--- !u!114 &1327378656
MonoBehaviour:
  m_ObjectHideFlags: 0
  m_CorrespondingSourceObject: {fileID: 0}
  m_PrefabInstance: {fileID: 0}
  m_PrefabAsset: {fileID: 0}
  m_GameObject: {fileID: 1327378654}
  m_Enabled: 1
  m_EditorHideFlags: 0
  m_Script: {fileID: 11500000, guid: 76c392e42b5098c458856cdf6ecaaaa1, type: 3}
  m_Name: 
  m_EditorClassIdentifier: 
  m_FirstSelected: {fileID: 0}
  m_sendNavigationEvents: 1
  m_DragThreshold: 10
--- !u!4 &1327378657
Transform:
  m_ObjectHideFlags: 0
  m_CorrespondingSourceObject: {fileID: 0}
  m_PrefabInstance: {fileID: 0}
  m_PrefabAsset: {fileID: 0}
  m_GameObject: {fileID: 1327378654}
  m_LocalRotation: {x: 0, y: 0, z: 0, w: 1}
  m_LocalPosition: {x: 0, y: 0, z: 0}
  m_LocalScale: {x: 1, y: 1, z: 1}
  m_Children: []
  m_Father: {fileID: 0}
  m_RootOrder: 1
  m_LocalEulerAnglesHint: {x: 0, y: 0, z: 0}
--- !u!1001 &1562394075
PrefabInstance:
  m_ObjectHideFlags: 0
  serializedVersion: 2
  m_Modification:
    m_TransformParent: {fileID: 0}
    m_Modifications:
    - target: {fileID: 845586976512744958, guid: afe7d78dabdc4fe408df2a2e51863be8,
        type: 3}
      propertyPath: m_Name
      value: Layout_Lvl_6
      objectReference: {fileID: 0}
    - target: {fileID: 1331629914534646553, guid: afe7d78dabdc4fe408df2a2e51863be8,
        type: 3}
      propertyPath: m_LocalPosition.x
      value: 0
      objectReference: {fileID: 0}
    - target: {fileID: 1331629914534646553, guid: afe7d78dabdc4fe408df2a2e51863be8,
        type: 3}
      propertyPath: m_LocalPosition.y
      value: 0
      objectReference: {fileID: 0}
    - target: {fileID: 1331629914534646553, guid: afe7d78dabdc4fe408df2a2e51863be8,
        type: 3}
      propertyPath: m_LocalPosition.z
      value: 0
      objectReference: {fileID: 0}
    - target: {fileID: 1331629914534646553, guid: afe7d78dabdc4fe408df2a2e51863be8,
        type: 3}
      propertyPath: m_LocalRotation.x
      value: 0
      objectReference: {fileID: 0}
    - target: {fileID: 1331629914534646553, guid: afe7d78dabdc4fe408df2a2e51863be8,
        type: 3}
      propertyPath: m_LocalRotation.y
      value: 0
      objectReference: {fileID: 0}
    - target: {fileID: 1331629914534646553, guid: afe7d78dabdc4fe408df2a2e51863be8,
        type: 3}
      propertyPath: m_LocalRotation.z
      value: 0
      objectReference: {fileID: 0}
    - target: {fileID: 1331629914534646553, guid: afe7d78dabdc4fe408df2a2e51863be8,
        type: 3}
      propertyPath: m_LocalRotation.w
      value: 1
      objectReference: {fileID: 0}
    - target: {fileID: 1331629914534646553, guid: afe7d78dabdc4fe408df2a2e51863be8,
        type: 3}
      propertyPath: m_RootOrder
      value: 9
      objectReference: {fileID: 0}
    - target: {fileID: 1331629914534646553, guid: afe7d78dabdc4fe408df2a2e51863be8,
        type: 3}
      propertyPath: m_LocalEulerAnglesHint.x
      value: 0
      objectReference: {fileID: 0}
    - target: {fileID: 1331629914534646553, guid: afe7d78dabdc4fe408df2a2e51863be8,
        type: 3}
      propertyPath: m_LocalEulerAnglesHint.y
      value: 0
      objectReference: {fileID: 0}
    - target: {fileID: 1331629914534646553, guid: afe7d78dabdc4fe408df2a2e51863be8,
        type: 3}
      propertyPath: m_LocalEulerAnglesHint.z
      value: 0
      objectReference: {fileID: 0}
    m_RemovedComponents: []
  m_SourcePrefab: {fileID: 100100000, guid: afe7d78dabdc4fe408df2a2e51863be8, type: 3}
--- !u!1001 &1588568379
PrefabInstance:
  m_ObjectHideFlags: 0
  serializedVersion: 2
  m_Modification:
    m_TransformParent: {fileID: 0}
    m_Modifications:
    - target: {fileID: 8998340056356349883, guid: 4d8e7639767e9af47a55cf19a5e2233b,
        type: 3}
      propertyPath: m_Name
      value: Canvas_RadialMenu
      objectReference: {fileID: 0}
    - target: {fileID: 8998340056356349830, guid: 4d8e7639767e9af47a55cf19a5e2233b,
        type: 3}
      propertyPath: m_LocalPosition.x
      value: 0
      objectReference: {fileID: 0}
    - target: {fileID: 8998340056356349830, guid: 4d8e7639767e9af47a55cf19a5e2233b,
        type: 3}
      propertyPath: m_LocalPosition.y
      value: 0
      objectReference: {fileID: 0}
    - target: {fileID: 8998340056356349830, guid: 4d8e7639767e9af47a55cf19a5e2233b,
        type: 3}
      propertyPath: m_LocalPosition.z
      value: 0
      objectReference: {fileID: 0}
    - target: {fileID: 8998340056356349830, guid: 4d8e7639767e9af47a55cf19a5e2233b,
        type: 3}
      propertyPath: m_LocalRotation.x
      value: 0
      objectReference: {fileID: 0}
    - target: {fileID: 8998340056356349830, guid: 4d8e7639767e9af47a55cf19a5e2233b,
        type: 3}
      propertyPath: m_LocalRotation.y
      value: 0
      objectReference: {fileID: 0}
    - target: {fileID: 8998340056356349830, guid: 4d8e7639767e9af47a55cf19a5e2233b,
        type: 3}
      propertyPath: m_LocalRotation.z
      value: 0
      objectReference: {fileID: 0}
    - target: {fileID: 8998340056356349830, guid: 4d8e7639767e9af47a55cf19a5e2233b,
        type: 3}
      propertyPath: m_LocalRotation.w
      value: 1
      objectReference: {fileID: 0}
    - target: {fileID: 8998340056356349830, guid: 4d8e7639767e9af47a55cf19a5e2233b,
        type: 3}
      propertyPath: m_RootOrder
      value: 6
      objectReference: {fileID: 0}
    - target: {fileID: 8998340056356349830, guid: 4d8e7639767e9af47a55cf19a5e2233b,
        type: 3}
      propertyPath: m_LocalEulerAnglesHint.x
      value: 0
      objectReference: {fileID: 0}
    - target: {fileID: 8998340056356349830, guid: 4d8e7639767e9af47a55cf19a5e2233b,
        type: 3}
      propertyPath: m_LocalEulerAnglesHint.y
      value: 0
      objectReference: {fileID: 0}
    - target: {fileID: 8998340056356349830, guid: 4d8e7639767e9af47a55cf19a5e2233b,
        type: 3}
      propertyPath: m_LocalEulerAnglesHint.z
      value: 0
      objectReference: {fileID: 0}
    - target: {fileID: 8998340056356349830, guid: 4d8e7639767e9af47a55cf19a5e2233b,
        type: 3}
      propertyPath: m_AnchoredPosition.x
      value: 0
      objectReference: {fileID: 0}
    - target: {fileID: 8998340056356349830, guid: 4d8e7639767e9af47a55cf19a5e2233b,
        type: 3}
      propertyPath: m_AnchoredPosition.y
      value: 0
      objectReference: {fileID: 0}
    - target: {fileID: 8998340056356349830, guid: 4d8e7639767e9af47a55cf19a5e2233b,
        type: 3}
      propertyPath: m_SizeDelta.x
      value: 0
      objectReference: {fileID: 0}
    - target: {fileID: 8998340056356349830, guid: 4d8e7639767e9af47a55cf19a5e2233b,
        type: 3}
      propertyPath: m_SizeDelta.y
      value: 0
      objectReference: {fileID: 0}
    - target: {fileID: 8998340056356349830, guid: 4d8e7639767e9af47a55cf19a5e2233b,
        type: 3}
      propertyPath: m_AnchorMin.x
      value: 0
      objectReference: {fileID: 0}
    - target: {fileID: 8998340056356349830, guid: 4d8e7639767e9af47a55cf19a5e2233b,
        type: 3}
      propertyPath: m_AnchorMin.y
      value: 0
      objectReference: {fileID: 0}
    - target: {fileID: 8998340056356349830, guid: 4d8e7639767e9af47a55cf19a5e2233b,
        type: 3}
      propertyPath: m_AnchorMax.x
      value: 0
      objectReference: {fileID: 0}
    - target: {fileID: 8998340056356349830, guid: 4d8e7639767e9af47a55cf19a5e2233b,
        type: 3}
      propertyPath: m_AnchorMax.y
      value: 0
      objectReference: {fileID: 0}
    - target: {fileID: 8998340056356349830, guid: 4d8e7639767e9af47a55cf19a5e2233b,
        type: 3}
      propertyPath: m_Pivot.x
      value: 0
      objectReference: {fileID: 0}
    - target: {fileID: 8998340056356349830, guid: 4d8e7639767e9af47a55cf19a5e2233b,
        type: 3}
      propertyPath: m_Pivot.y
      value: 0
      objectReference: {fileID: 0}
    m_RemovedComponents: []
  m_SourcePrefab: {fileID: 100100000, guid: 4d8e7639767e9af47a55cf19a5e2233b, type: 3}
--- !u!1001 &1983099499
PrefabInstance:
  m_ObjectHideFlags: 0
  serializedVersion: 2
  m_Modification:
    m_TransformParent: {fileID: 0}
    m_Modifications:
    - target: {fileID: 9024520278931356769, guid: 963250dd11e7a7f42b72aee4c3967280,
        type: 3}
      propertyPath: m_Name
      value: Canvas_HUD
      objectReference: {fileID: 0}
    - target: {fileID: 9024520278931356773, guid: 963250dd11e7a7f42b72aee4c3967280,
        type: 3}
      propertyPath: m_LocalPosition.x
      value: 0
      objectReference: {fileID: 0}
    - target: {fileID: 9024520278931356773, guid: 963250dd11e7a7f42b72aee4c3967280,
        type: 3}
      propertyPath: m_LocalPosition.y
      value: 0
      objectReference: {fileID: 0}
    - target: {fileID: 9024520278931356773, guid: 963250dd11e7a7f42b72aee4c3967280,
        type: 3}
      propertyPath: m_LocalPosition.z
      value: 0
      objectReference: {fileID: 0}
    - target: {fileID: 9024520278931356773, guid: 963250dd11e7a7f42b72aee4c3967280,
        type: 3}
      propertyPath: m_LocalRotation.x
      value: 0
      objectReference: {fileID: 0}
    - target: {fileID: 9024520278931356773, guid: 963250dd11e7a7f42b72aee4c3967280,
        type: 3}
      propertyPath: m_LocalRotation.y
      value: 0
      objectReference: {fileID: 0}
    - target: {fileID: 9024520278931356773, guid: 963250dd11e7a7f42b72aee4c3967280,
        type: 3}
      propertyPath: m_LocalRotation.z
      value: 0
      objectReference: {fileID: 0}
    - target: {fileID: 9024520278931356773, guid: 963250dd11e7a7f42b72aee4c3967280,
        type: 3}
      propertyPath: m_LocalRotation.w
      value: 1
      objectReference: {fileID: 0}
    - target: {fileID: 9024520278931356773, guid: 963250dd11e7a7f42b72aee4c3967280,
        type: 3}
      propertyPath: m_RootOrder
      value: 5
      objectReference: {fileID: 0}
    - target: {fileID: 9024520278931356773, guid: 963250dd11e7a7f42b72aee4c3967280,
        type: 3}
      propertyPath: m_LocalEulerAnglesHint.x
      value: 0
      objectReference: {fileID: 0}
    - target: {fileID: 9024520278931356773, guid: 963250dd11e7a7f42b72aee4c3967280,
        type: 3}
      propertyPath: m_LocalEulerAnglesHint.y
      value: 0
      objectReference: {fileID: 0}
    - target: {fileID: 9024520278931356773, guid: 963250dd11e7a7f42b72aee4c3967280,
        type: 3}
      propertyPath: m_LocalEulerAnglesHint.z
      value: 0
      objectReference: {fileID: 0}
    - target: {fileID: 9024520278931356773, guid: 963250dd11e7a7f42b72aee4c3967280,
        type: 3}
      propertyPath: m_AnchoredPosition.x
      value: 0
      objectReference: {fileID: 0}
    - target: {fileID: 9024520278931356773, guid: 963250dd11e7a7f42b72aee4c3967280,
        type: 3}
      propertyPath: m_AnchoredPosition.y
      value: 0
      objectReference: {fileID: 0}
    - target: {fileID: 9024520278931356773, guid: 963250dd11e7a7f42b72aee4c3967280,
        type: 3}
      propertyPath: m_SizeDelta.x
      value: 0
      objectReference: {fileID: 0}
    - target: {fileID: 9024520278931356773, guid: 963250dd11e7a7f42b72aee4c3967280,
        type: 3}
      propertyPath: m_SizeDelta.y
      value: 0
      objectReference: {fileID: 0}
    - target: {fileID: 9024520278931356773, guid: 963250dd11e7a7f42b72aee4c3967280,
        type: 3}
      propertyPath: m_AnchorMin.x
      value: 0
      objectReference: {fileID: 0}
    - target: {fileID: 9024520278931356773, guid: 963250dd11e7a7f42b72aee4c3967280,
        type: 3}
      propertyPath: m_AnchorMin.y
      value: 0
      objectReference: {fileID: 0}
    - target: {fileID: 9024520278931356773, guid: 963250dd11e7a7f42b72aee4c3967280,
        type: 3}
      propertyPath: m_AnchorMax.x
      value: 0
      objectReference: {fileID: 0}
    - target: {fileID: 9024520278931356773, guid: 963250dd11e7a7f42b72aee4c3967280,
        type: 3}
      propertyPath: m_AnchorMax.y
      value: 0
      objectReference: {fileID: 0}
    - target: {fileID: 9024520278931356773, guid: 963250dd11e7a7f42b72aee4c3967280,
        type: 3}
      propertyPath: m_Pivot.x
      value: 0
      objectReference: {fileID: 0}
    - target: {fileID: 9024520278931356773, guid: 963250dd11e7a7f42b72aee4c3967280,
        type: 3}
      propertyPath: m_Pivot.y
      value: 0
      objectReference: {fileID: 0}
    - target: {fileID: 5928067996521864852, guid: 963250dd11e7a7f42b72aee4c3967280,
        type: 3}
      propertyPath: m_AnchoredPosition.x
      value: 126
      objectReference: {fileID: 0}
    - target: {fileID: 5928067996521864852, guid: 963250dd11e7a7f42b72aee4c3967280,
        type: 3}
      propertyPath: m_AnchorMin.y
      value: 0
      objectReference: {fileID: 0}
    - target: {fileID: 5928067996521864852, guid: 963250dd11e7a7f42b72aee4c3967280,
        type: 3}
      propertyPath: m_AnchorMax.y
      value: 0
      objectReference: {fileID: 0}
    - target: {fileID: 5928067996521864852, guid: 963250dd11e7a7f42b72aee4c3967280,
        type: 3}
      propertyPath: m_AnchoredPosition.y
      value: 0
      objectReference: {fileID: 0}
    - target: {fileID: 5928067996521864852, guid: 963250dd11e7a7f42b72aee4c3967280,
        type: 3}
      propertyPath: m_SizeDelta.x
      value: 0
      objectReference: {fileID: 0}
    - target: {fileID: 5928067996521864852, guid: 963250dd11e7a7f42b72aee4c3967280,
        type: 3}
      propertyPath: m_SizeDelta.y
      value: 0
      objectReference: {fileID: 0}
    - target: {fileID: 1759604932227231267, guid: 963250dd11e7a7f42b72aee4c3967280,
        type: 3}
      propertyPath: m_AnchorMin.y
      value: 0
      objectReference: {fileID: 0}
    - target: {fileID: 1759604932227231267, guid: 963250dd11e7a7f42b72aee4c3967280,
        type: 3}
      propertyPath: m_AnchorMax.y
      value: 0
      objectReference: {fileID: 0}
    - target: {fileID: 1759604932227231267, guid: 963250dd11e7a7f42b72aee4c3967280,
        type: 3}
      propertyPath: m_AnchoredPosition.x
      value: 0
      objectReference: {fileID: 0}
    - target: {fileID: 1759604932227231267, guid: 963250dd11e7a7f42b72aee4c3967280,
        type: 3}
      propertyPath: m_AnchoredPosition.y
      value: 0
      objectReference: {fileID: 0}
    - target: {fileID: 1759604932227231267, guid: 963250dd11e7a7f42b72aee4c3967280,
        type: 3}
      propertyPath: m_SizeDelta.x
      value: 0
      objectReference: {fileID: 0}
    - target: {fileID: 1759604932227231267, guid: 963250dd11e7a7f42b72aee4c3967280,
        type: 3}
      propertyPath: m_SizeDelta.y
      value: 0
      objectReference: {fileID: 0}
    - target: {fileID: 8436574711966561568, guid: 963250dd11e7a7f42b72aee4c3967280,
        type: 3}
      propertyPath: m_AnchorMin.y
      value: 0
      objectReference: {fileID: 0}
    - target: {fileID: 8436574711966561568, guid: 963250dd11e7a7f42b72aee4c3967280,
        type: 3}
      propertyPath: m_AnchorMax.y
      value: 0
      objectReference: {fileID: 0}
    - target: {fileID: 8436574711966561568, guid: 963250dd11e7a7f42b72aee4c3967280,
        type: 3}
      propertyPath: m_AnchoredPosition.x
      value: 0
      objectReference: {fileID: 0}
    - target: {fileID: 8436574711966561568, guid: 963250dd11e7a7f42b72aee4c3967280,
        type: 3}
      propertyPath: m_AnchoredPosition.y
      value: 0
      objectReference: {fileID: 0}
    - target: {fileID: 8436574711966561568, guid: 963250dd11e7a7f42b72aee4c3967280,
        type: 3}
      propertyPath: m_SizeDelta.x
      value: 0
      objectReference: {fileID: 0}
    - target: {fileID: 8436574711966561568, guid: 963250dd11e7a7f42b72aee4c3967280,
        type: 3}
      propertyPath: m_SizeDelta.y
      value: 0
      objectReference: {fileID: 0}
    - target: {fileID: 372983827523102570, guid: 963250dd11e7a7f42b72aee4c3967280,
        type: 3}
      propertyPath: m_SizeDelta.x
      value: 0
      objectReference: {fileID: 0}
    - target: {fileID: 9024520279111187215, guid: 963250dd11e7a7f42b72aee4c3967280,
        type: 3}
      propertyPath: m_AnchoredPosition.y
      value: -9.774902
      objectReference: {fileID: 0}
    m_RemovedComponents: []
  m_SourcePrefab: {fileID: 100100000, guid: 963250dd11e7a7f42b72aee4c3967280, type: 3}
--- !u!1001 &2037869803
PrefabInstance:
  m_ObjectHideFlags: 0
  serializedVersion: 2
  m_Modification:
    m_TransformParent: {fileID: 0}
    m_Modifications:
    - target: {fileID: 1372092065807896370, guid: fd947a8a79e539642b441004cfc22043,
        type: 3}
      propertyPath: m_Name
      value: Canvas_Pause
      objectReference: {fileID: 0}
    - target: {fileID: 1372092065807896370, guid: fd947a8a79e539642b441004cfc22043,
        type: 3}
      propertyPath: m_IsActive
      value: 1
      objectReference: {fileID: 0}
    - target: {fileID: 1372092065807896366, guid: fd947a8a79e539642b441004cfc22043,
        type: 3}
      propertyPath: m_LocalPosition.x
      value: 0
      objectReference: {fileID: 0}
    - target: {fileID: 1372092065807896366, guid: fd947a8a79e539642b441004cfc22043,
        type: 3}
      propertyPath: m_LocalPosition.y
      value: 0
      objectReference: {fileID: 0}
    - target: {fileID: 1372092065807896366, guid: fd947a8a79e539642b441004cfc22043,
        type: 3}
      propertyPath: m_LocalPosition.z
      value: 0
      objectReference: {fileID: 0}
    - target: {fileID: 1372092065807896366, guid: fd947a8a79e539642b441004cfc22043,
        type: 3}
      propertyPath: m_LocalRotation.x
      value: 0
      objectReference: {fileID: 0}
    - target: {fileID: 1372092065807896366, guid: fd947a8a79e539642b441004cfc22043,
        type: 3}
      propertyPath: m_LocalRotation.y
      value: 0
      objectReference: {fileID: 0}
    - target: {fileID: 1372092065807896366, guid: fd947a8a79e539642b441004cfc22043,
        type: 3}
      propertyPath: m_LocalRotation.z
      value: 0
      objectReference: {fileID: 0}
    - target: {fileID: 1372092065807896366, guid: fd947a8a79e539642b441004cfc22043,
        type: 3}
      propertyPath: m_LocalRotation.w
      value: 1
      objectReference: {fileID: 0}
    - target: {fileID: 1372092065807896366, guid: fd947a8a79e539642b441004cfc22043,
        type: 3}
      propertyPath: m_RootOrder
      value: 2
      objectReference: {fileID: 0}
    - target: {fileID: 1372092065807896366, guid: fd947a8a79e539642b441004cfc22043,
        type: 3}
      propertyPath: m_LocalEulerAnglesHint.x
      value: 0
      objectReference: {fileID: 0}
    - target: {fileID: 1372092065807896366, guid: fd947a8a79e539642b441004cfc22043,
        type: 3}
      propertyPath: m_LocalEulerAnglesHint.y
      value: 0
      objectReference: {fileID: 0}
    - target: {fileID: 1372092065807896366, guid: fd947a8a79e539642b441004cfc22043,
        type: 3}
      propertyPath: m_LocalEulerAnglesHint.z
      value: 0
      objectReference: {fileID: 0}
    - target: {fileID: 1372092065807896366, guid: fd947a8a79e539642b441004cfc22043,
        type: 3}
      propertyPath: m_AnchoredPosition.x
      value: 0
      objectReference: {fileID: 0}
    - target: {fileID: 1372092065807896366, guid: fd947a8a79e539642b441004cfc22043,
        type: 3}
      propertyPath: m_AnchoredPosition.y
      value: 0
      objectReference: {fileID: 0}
    - target: {fileID: 1372092065807896366, guid: fd947a8a79e539642b441004cfc22043,
        type: 3}
      propertyPath: m_SizeDelta.x
      value: 0
      objectReference: {fileID: 0}
    - target: {fileID: 1372092065807896366, guid: fd947a8a79e539642b441004cfc22043,
        type: 3}
      propertyPath: m_SizeDelta.y
      value: 0
      objectReference: {fileID: 0}
    - target: {fileID: 1372092065807896366, guid: fd947a8a79e539642b441004cfc22043,
        type: 3}
      propertyPath: m_AnchorMin.x
      value: 0
      objectReference: {fileID: 0}
    - target: {fileID: 1372092065807896366, guid: fd947a8a79e539642b441004cfc22043,
        type: 3}
      propertyPath: m_AnchorMin.y
      value: 0
      objectReference: {fileID: 0}
    - target: {fileID: 1372092065807896366, guid: fd947a8a79e539642b441004cfc22043,
        type: 3}
      propertyPath: m_AnchorMax.x
      value: 0
      objectReference: {fileID: 0}
    - target: {fileID: 1372092065807896366, guid: fd947a8a79e539642b441004cfc22043,
        type: 3}
      propertyPath: m_AnchorMax.y
      value: 0
      objectReference: {fileID: 0}
    - target: {fileID: 1372092065807896366, guid: fd947a8a79e539642b441004cfc22043,
        type: 3}
      propertyPath: m_Pivot.x
      value: 0
      objectReference: {fileID: 0}
    - target: {fileID: 1372092065807896366, guid: fd947a8a79e539642b441004cfc22043,
        type: 3}
      propertyPath: m_Pivot.y
      value: 0
      objectReference: {fileID: 0}
    - target: {fileID: 5054644556580341187, guid: fd947a8a79e539642b441004cfc22043,
        type: 3}
      propertyPath: m_IsActive
      value: 1
      objectReference: {fileID: 0}
    - target: {fileID: 5054644556580341196, guid: fd947a8a79e539642b441004cfc22043,
        type: 3}
      propertyPath: m_AnchoredPosition.y
      value: -10.8
      objectReference: {fileID: 0}
    - target: {fileID: 5054644556580341197, guid: fd947a8a79e539642b441004cfc22043,
        type: 3}
      propertyPath: m_OnClick.m_PersistentCalls.m_Calls.Array.data[0].m_Target
      value: 
      objectReference: {fileID: 0}
    - target: {fileID: 5054644556580341197, guid: fd947a8a79e539642b441004cfc22043,
        type: 3}
      propertyPath: m_OnClick.m_PersistentCalls.m_Calls.Array.data[0].m_MethodName
      value: GoToSceneWithFade
      objectReference: {fileID: 0}
    m_RemovedComponents: []
  m_SourcePrefab: {fileID: 100100000, guid: fd947a8a79e539642b441004cfc22043, type: 3}
