<?xml version="1.0" encoding="utf-8"?>
<!-- Generator: Adobe Illustrator 19.0.0, SVG Export Plug-In . SVG Version: 6.00 Build 0)  -->
<svg version="1.1" xmlns="http://www.w3.org/2000/svg" xmlns:xlink="http://www.w3.org/1999/xlink" x="0px" y="0px"
	 viewBox="0 0 792 612" style="enable-background:new 0 0 792 612;" xml:space="preserve">
<style type="text/css">
	.st0{fill:#3A3A3C;}
	.st1{fill:#59585A;}
	.st2{fill:#EBECED;}
	.st3{fill:#414042;}
	.st4{fill:#EFC51A;}
	.st5{fill:none;stroke:#00A651;stroke-width:5;stroke-miterlimit:10;}
	.st6{fill:none;stroke:#C13C2D;stroke-width:5;stroke-miterlimit:10;}
	.st7{fill:none;stroke:#009444;stroke-width:5;stroke-miterlimit:10;}
	.st8{fill:#C13C2D;}
	.st9{fill:#25B061;}
	.st10{fill:none;stroke:#EFC51A;stroke-width:4;stroke-miterlimit:10;}
	.st11{fill:#FFFFFF;}
</style>
<g id="Layer_1">
</g>
<g id="Layer_2">
</g>
</svg>
